iButtons2022
…
write.csv(iBtn_summary, "C:\\Users\\jlpeirce\\OneDrive - University of Alaska\\R for UAF AGC\\iButtons\\data\\iBtn_summary.csv", row.names = FALSE)

avg_daily_temp <- iBtn_summary %>%
  group_by(Date, iBtn_ID, Sensor_type, Plot_type) %>% 
  summarize(avg_daily_temp = mean(temp_c, na.rm = T), .groups = "drop")

avg_daily_temp

## # A tibble: 4,320 x 5
##    Date      iBtn_ID Sensor_type   Plot_type    avg_daily_temp
##    <chr>     <chr>   <chr>         <chr>                 <dbl>
##  1 7/19/2021 X1      Water surface Aquatic forb          20.1 
##  2 7/19/2021 X10     Sediment      Aquatic forb           8.83
##  3 7/19/2021 X101    Sediment      Lake                  15.7 
##  4 7/19/2021 X103    Water surface Thick moss            20.5 
##  5 7/19/2021 X105    Above moss    Thick moss            20.8 
##  6 7/19/2021 X108    Sediment      Thick moss             7.17
##  7 7/19/2021 X110    Water surface Aquatic forb          20.4 
##  8 7/19/2021 X111    Above moss    Aquatic forb          20.4 
##  9 7/19/2021 X112    Sediment      Aquatic forb          14.5 
## 10 7/19/2021 X117    Water surface Shallow moss          20.3 
## # ... with 4,310 more rows
…
avg_iBtn_temp <- iBtn_summary %>%
  group_by(iBtn_ID, Sensor_type, Plot_type) %>% 
  summarize(avg_temp = mean(temp_c, na.rm = T), .groups = "drop")

avg_iBtn_temp

## # A tibble: 120 x 4
##    iBtn_ID Sensor_type   Plot_type    avg_temp
##    <chr>   <chr>         <chr>           <dbl>
##  1 X1      Water surface Aquatic forb    10.9 
##  2 X10     Sediment      Aquatic forb     8.62
##  3 X101    Sediment      Lake            10.8 
##  4 X103    Water surface Thick moss      10.5 
##  5 X105    Above moss    Thick moss       9.47
##  6 X108    Sediment      Thick moss       4.80
##  7 X110    Water surface Aquatic forb    11.0 
##  8 X111    Above moss    Aquatic forb    10.1 
##  9 X112    Sediment      Aquatic forb     8.21
## 10 X117    Water surface Shallow moss    10.8 
## # ... with 110 more rows
